# Exported from Wings 3D 2.2.9
mtllib sword2.mtl
o Cube1
#65 vertices, 126 faces
v -1.1102230e-16 -0.40491922 -7.07036519
v -1.6454142e-16 -0.19505193 8.69558416
v -1.41421356 1.1102230e-16 -7.07036519
v -0.61560919 2.9645083e-17 8.46712520
v 1.41421356 -1.1102230e-16 -7.07036519
v 0.61560919 -1.9239952e-16 8.46712520
v 1.1102230e-16 0.40491922 -7.07036519
v 1.5307304e-16 0.19505193 8.69558416
v 0.0000000e+0 1.4852897e-16 9.03042934
v 1.00000000 -0.46493172 -8.63807900
v -1.00000000 -0.46493172 -8.63807900
v -1.00000000 0.46493172 -8.63807900
v 1.00000000 0.46493172 -8.63807900
v 1.00000000 -0.46493172 -10.18441341
v -1.00000000 -0.46493172 -10.18441341
v -1.00000000 0.46493172 -10.18441341
v 1.00000000 0.46493172 -10.18441341
v 0.75000000 -0.34869879 -11.16442810
v -0.75000000 -0.34869879 -11.16442810
v -0.75000000 0.34869879 -11.16442810
v 0.75000000 0.34869879 -11.16442810
v 4.22655868 0.46493172 -8.63807900
v 4.22655868 -0.46493172 -8.63807900
v 4.22655868 -0.46493172 -10.18441341
v 4.22655868 0.46493172 -10.18441341
v -4.22655868 -0.46493172 -8.63807900
v -4.22655868 0.46493172 -8.63807900
v -4.22655868 0.46493172 -10.18441341
v -4.22655868 -0.46493172 -10.18441341
v 0.75000000 -0.34869879 -14.27145461
v -0.75000000 -0.34869879 -14.27145461
v -0.75000000 0.34869879 -14.27145461
v 0.75000000 0.34869879 -14.27145461
v 1.00000000 -0.46493172 -14.93442827
v -1.00000000 -0.46493172 -14.93442827
v -1.00000000 0.46493172 -14.93442827
v 1.00000000 0.46493172 -14.93442827
v 1.00000000 -0.46493172 -16.21302033
v -1.00000000 -0.46493172 -16.21302033
v -1.00000000 0.46493172 -16.21302033
v 1.00000000 0.46493172 -16.21302033
v 0.0000000e+0 -0.46493172 -11.16442810
v -1.00000000 0.0000000e+0 -11.16442810
v 0.0000000e+0 0.46493172 -11.16442810
v 1.00000000 0.0000000e+0 -11.16442810
v 0.0000000e+0 -0.46493172 -14.27145461
v 0.75000000 -0.34869879 -13.71819277
v -1.00000000 0.0000000e+0 -14.27145461
v -0.75000000 -0.34869879 -13.71819277
v 0.0000000e+0 0.46493172 -14.27145461
v -0.75000000 0.34869879 -13.71819277
v 1.00000000 0.0000000e+0 -14.27145461
v 0.75000000 0.34869879 -13.71819277
v 0.0000000e+0 -0.46493172 -13.71819277
v -1.00000000 0.0000000e+0 -13.71819277
v 0.0000000e+0 0.46493172 -13.71819277
v 1.00000000 0.0000000e+0 -13.71819277
v 0.0000000e+0 -0.46493172 -10.18441341
v -1.00000000 0.0000000e+0 -10.18441341
v 0.0000000e+0 0.46493172 -10.18441341
v 1.00000000 0.0000000e+0 -10.18441341
v 0.0000000e+0 -0.46493172 -14.93442827
v -1.00000000 0.0000000e+0 -14.93442827
v 0.0000000e+0 0.46493172 -14.93442827
v 1.00000000 0.0000000e+0 -14.93442827
vn -1.1501323e-16 -0.99505609 9.9314532e-2
vn 7.0882664e-17 -0.98417026 0.17722554
vn -0.99670771 4.1437220e-17 8.1078617e-2
vn -0.83776023 3.8451517e-16 0.54603827
vn 0.99670771 -8.2874441e-17 8.1078617e-2
vn 0.83776023 3.2042930e-16 0.54603827
vn 1.1501323e-16 0.99505609 9.9314532e-2
vn 1.7214361e-16 0.98417026 0.17722554
vn 7.8923187e-16 6.6781158e-16 1.00000000
vn 0.19358713 -0.93023488 0.31174845
vn -0.23828355 -0.95223844 0.19095260
vn -0.19358713 0.93023488 0.31174845
vn 0.23828355 0.95223844 0.19095260
vn 0.37685273 -0.88395825 -0.27676674
vn -0.32052908 -0.91752228 -0.23540174
vn -0.37685273 0.88395825 -0.27676674
vn 0.32052908 0.91752228 -0.23540174
vn 0.51813647 -0.84756773 -0.11473247
vn -0.51813647 -0.84756773 -0.11473247
vn -0.51813647 0.84756773 -0.11473247
vn 0.51813647 0.84756773 -0.11473247
vn 0.57735027 0.57735027 0.57735027
vn 0.57735027 -0.57735027 0.57735027
vn 0.57735027 -0.57735027 -0.57735027
vn 0.40824829 0.40824829 -0.81649658
vn -0.57735027 -0.57735027 0.57735027
vn -0.57735027 0.57735027 0.57735027
vn -0.57735027 0.57735027 -0.57735027
vn -0.40824829 -0.40824829 -0.81649658
vn 0.51214247 -0.84281128 0.16546672
vn -0.51214247 -0.84281128 0.16546672
vn -0.51214247 0.84281128 0.16546672
vn 0.51214247 0.84281128 0.16546672
vn 0.63243793 -0.76336649 0.13150615
vn -0.63243793 -0.76336649 0.13150615
vn -0.63243793 0.76336649 0.13150615
vn 0.63243793 0.76336649 0.13150615
vn 0.57735027 -0.57735027 -0.57735027
vn -0.66666667 -0.66666667 -0.33333333
vn -0.57735027 0.57735027 -0.57735027
vn 0.66666667 0.66666667 -0.33333333
vn 3.5082359e-18 -0.99923800 -3.9031107e-2
vn -0.99695926 -6.4941604e-17 -7.7924503e-2
vn 3.5082359e-17 0.99923800 -3.9031107e-2
vn 0.99695926 -3.2470802e-17 -7.7924503e-2
vn 0.0000000e+0 -0.99837169 5.7043649e-2
vn 0.52376874 -0.85186050 -3.4288191e-17
vn -0.99378801 2.6131712e-16 0.11128970
vn -0.52376874 -0.85186050 -3.4288191e-17
vn 1.3013686e-16 0.99837169 5.7043649e-2
vn -0.52376874 0.85186050 6.2086710e-18
vn 0.99378801 -8.1661600e-17 0.11128970
vn 0.52376874 0.85186050 -3.4288191e-17
vn 0.0000000e+0 -1.00000000 0.0000000e+0
vn -1.00000000 0.0000000e+0 0.0000000e+0
vn 0.0000000e+0 1.00000000 0.0000000e+0
vn 1.00000000 0.0000000e+0 0.0000000e+0
vn -0.0000000e+0 -1.00000000 0.0000000e+0
vn -0.55470020 0.0000000e+0 -0.83205029
vn -0.0000000e+0 1.00000000 0.0000000e+0
vn 0.55470020 0.0000000e+0 -0.83205029
vn -0.0000000e+0 -1.00000000 0.0000000e+0
vn -1.00000000 0.0000000e+0 0.0000000e+0
vn -0.0000000e+0 1.00000000 0.0000000e+0
vn 1.00000000 0.0000000e+0 0.0000000e+0
g Cube1_default
usemtl default
s 1
f 1//1 5//5 2//2
f 1//1 10//10 5//5
f 2//2 3//3 1//1
f 2//2 5//5 6//6
f 2//2 9//9 4//4
f 3//3 8//8 7//7
f 3//3 11//11 1//1
f 4//4 3//3 2//2
f 4//4 8//8 3//3
f 4//4 9//9 8//8
f 5//5 8//8 6//6
f 5//5 13//13 7//7
f 6//6 9//9 2//2
f 7//7 8//8 5//5
f 7//7 12//12 3//3
f 8//8 9//9 6//6
f 10//10 1//1 11//11
f 10//10 13//13 5//5
f 10//10 22//22 13//13
f 10//10 58//58 14//14
f 11//11 3//3 12//12
f 11//11 26//26 15//15
f 11//11 58//58 10//10
f 12//12 7//7 13//13
f 12//12 26//26 11//11
f 12//12 60//60 16//16
f 13//13 22//22 17//17
f 13//13 60//60 12//12
f 14//14 24//24 10//10
f 14//14 42//42 18//18
f 14//14 45//45 61//61
f 15//15 42//42 58//58
f 15//15 43//43 19//19
f 16//16 28//28 12//12
f 16//16 43//43 59//59
f 16//16 44//44 20//20
f 17//17 44//44 60//60
f 17//17 45//45 21//21
f 18//18 42//42 47//47
f 18//18 45//45 14//14
f 18//18 47//47 45//45
f 19//19 43//43 49//49
f 19//19 49//49 42//42
f 20//20 44//44 51//51
f 20//20 51//51 43//43
f 21//21 45//45 53//53
f 21//21 53//53 44//44
f 22//22 10//10 23//23
f 23//23 10//10 24//24
f 23//23 24//24 22//22
f 24//24 61//61 25//25
f 25//25 17//17 22//22
f 25//25 22//22 24//24
f 25//25 61//61 17//17
f 26//26 12//12 27//27
f 27//27 12//12 28//28
f 27//27 28//28 26//26
f 28//28 59//59 29//29
f 29//29 15//15 26//26
f 29//29 26//26 28//28
f 29//29 59//59 15//15
f 30//30 34//34 52//52
f 30//30 46//46 34//34
f 30//30 47//47 46//46
f 31//31 35//35 46//46
f 31//31 48//48 35//35
f 31//31 49//49 48//48
f 32//32 36//36 48//48
f 32//32 50//50 36//36
f 32//32 51//51 50//50
f 33//33 37//37 50//50
f 33//33 52//52 37//37
f 33//33 53//53 52//52
f 34//34 38//38 65//65
f 34//34 46//46 62//62
f 34//34 62//62 38//38
f 35//35 39//39 62//62
f 35//35 48//48 63//63
f 35//35 63//63 39//39
f 36//36 40//40 63//63
f 36//36 50//50 64//64
f 36//36 64//64 40//40
f 37//37 41//41 64//64
f 37//37 52//52 65//65
f 37//37 65//65 41//41
f 38//38 62//62 39//39
f 39//39 40//40 38//38
f 39//39 63//63 40//40
f 40//40 64//64 41//41
f 41//41 38//38 40//40
f 41//41 65//65 38//38
f 42//42 15//15 19//19
f 43//43 16//16 20//20
f 44//44 17//17 21//21
f 46//46 49//49 31//31
f 47//47 52//52 57//57
f 48//48 51//51 32//32
f 49//49 46//46 54//54
f 50//50 53//53 33//33
f 51//51 48//48 55//55
f 52//52 47//47 30//30
f 53//53 50//50 56//56
f 54//54 42//42 49//49
f 54//54 46//46 47//47
f 54//54 47//47 42//42
f 55//55 43//43 51//51
f 55//55 48//48 49//49
f 55//55 49//49 43//43
f 56//56 44//44 53//53
f 56//56 50//50 51//51
f 56//56 51//51 44//44
f 57//57 45//45 47//47
f 57//57 52//52 53//53
f 57//57 53//53 45//45
f 58//58 11//11 15//15
f 58//58 42//42 14//14
f 59//59 28//28 16//16
f 59//59 43//43 15//15
f 60//60 13//13 17//17
f 60//60 44//44 16//16
f 61//61 24//24 14//14
f 61//61 45//45 17//17
f 62//62 46//46 35//35
f 63//63 48//48 36//36
f 64//64 50//50 37//37
f 65//65 52//52 34//34
